module codeberg.org/dereulenspiegel/transmission-buddy

go 1.17

require (
	github.com/fsnotify/fsnotify v1.5.1
	github.com/hekmon/transmissionrpc v1.1.0
)

require (
	github.com/hashicorp/hcl v1.0.0 // indirect
	github.com/magiconair/properties v1.8.5 // indirect
	github.com/mitchellh/mapstructure v1.4.3 // indirect
	github.com/pelletier/go-toml v1.9.4 // indirect
	github.com/spf13/afero v1.6.0 // indirect
	github.com/spf13/cast v1.4.1 // indirect
	github.com/spf13/jwalterweatherman v1.1.0 // indirect
	github.com/spf13/pflag v1.0.5 // indirect
	github.com/subosito/gotenv v1.2.0 // indirect
	golang.org/x/sys v0.0.0-20211210111614-af8b64212486 // indirect
	golang.org/x/text v0.3.7 // indirect
	gopkg.in/ini.v1 v1.66.2 // indirect
	gopkg.in/yaml.v2 v2.4.0 // indirect
)

require (
	github.com/hashicorp/go-cleanhttp v0.5.2 // indirect
	github.com/hekmon/cunits/v2 v2.0.2 // indirect
	github.com/sirupsen/logrus v1.8.1
	github.com/spf13/viper v1.10.1
)
